module github.com/bibin-zoz/api-gateway

go 1.21.1

require (
	github.com/IBM/sarama v1.43.2
	github.com/gin-gonic/gin v1.9.1
	github.com/go-playground/validator/v10 v10.19.0
	github.com/golang-jwt/jwt v3.2.2+incompatible
	github.com/golang-jwt/jwt/v4 v4.5.0
	github.com/gorilla/websocket v1.5.1
	github.com/pion/webrtc/v2 v2.2.26
	github.com/spf13/viper v1.18.2
	golang.org/x/crypto v0.22.0
	google.golang.org/grpc v1.63.0
	google.golang.org/protobuf v1.33.0
)

require (
	github.com/bytedance/sonic v1.9.1 // indirect
	github.com/cheekybits/genny v1.0.0 // indirect
	github.com/chenzhuoyu/base64x v0.0.0-20221115062448-fe3a3abad311 // indirect
	github.com/davecgh/go-spew v1.1.2-0.20180830191138-d8f796af33cc // indirect
	github.com/eapache/go-resiliency v1.6.0 // indirect
	github.com/eapache/go-xerial-snappy v0.0.0-20230731223053-c322873962e3 // indirect
	github.com/eapache/queue v1.1.0 // indirect
	github.com/fsnotify/fsnotify v1.7.0 // indirect
	github.com/gabriel-vasile/mimetype v1.4.3 // indirect
	github.com/gin-contrib/sse v0.1.0 // indirect
	github.com/go-playground/locales v0.14.1 // indirect
	github.com/go-playground/universal-translator v0.18.1 // indirect
	github.com/goccy/go-json v0.10.2 // indirect
	github.com/golang/snappy v0.0.4 // indirect
	github.com/google/uuid v1.6.0 // indirect
	github.com/hashicorp/errwrap v1.0.0 // indirect
	github.com/hashicorp/go-multierror v1.1.1 // indirect
	github.com/hashicorp/go-uuid v1.0.3 // indirect
	github.com/hashicorp/hcl v1.0.0 // indirect
	github.com/jcmturner/aescts/v2 v2.0.0 // indirect
	github.com/jcmturner/dnsutils/v2 v2.0.0 // indirect
	github.com/jcmturner/gofork v1.7.6 // indirect
	github.com/jcmturner/gokrb5/v8 v8.4.4 // indirect
	github.com/jcmturner/rpc/v2 v2.0.3 // indirect
	github.com/json-iterator/go v1.1.12 // indirect
	github.com/klauspost/compress v1.17.8 // indirect
	github.com/klauspost/cpuid/v2 v2.2.4 // indirect
	github.com/leodido/go-urn v1.4.0 // indirect
	github.com/lucas-clemente/quic-go v0.7.1-0.20190401152353-907071221cf9 // indirect
	github.com/magiconair/properties v1.8.7 // indirect
	github.com/marten-seemann/qtls v0.2.3 // indirect
	github.com/mattn/go-isatty v0.0.19 // indirect
	github.com/mitchellh/mapstructure v1.5.0 // indirect
	github.com/modern-go/concurrent v0.0.0-20180306012644-bacd9c7ef1dd // indirect
	github.com/modern-go/reflect2 v1.0.2 // indirect
	github.com/pelletier/go-toml/v2 v2.1.0 // indirect
	github.com/pierrec/lz4/v4 v4.1.21 // indirect
	github.com/pion/datachannel v1.4.21 // indirect
	github.com/pion/dtls/v2 v2.0.2 // indirect
	github.com/pion/ice v0.7.18 // indirect
	github.com/pion/logging v0.2.2 // indirect
	github.com/pion/mdns v0.0.4 // indirect
	github.com/pion/quic v0.1.1 // indirect
	github.com/pion/randutil v0.1.0 // indirect
	github.com/pion/rtcp v1.2.3 // indirect
	github.com/pion/rtp v1.6.0 // indirect
	github.com/pion/sctp v1.7.10 // indirect
	github.com/pion/sdp/v2 v2.4.0 // indirect
	github.com/pion/srtp v1.5.1 // indirect
	github.com/pion/stun v0.3.5 // indirect
	github.com/pion/transport v0.10.1 // indirect
	github.com/pion/turn/v2 v2.0.4 // indirect
	github.com/pion/udp v0.1.0 // indirect
	github.com/pkg/errors v0.9.1 // indirect
	github.com/rcrowley/go-metrics v0.0.0-20201227073835-cf1acfcdf475 // indirect
	github.com/sagikazarmark/locafero v0.4.0 // indirect
	github.com/sagikazarmark/slog-shim v0.1.0 // indirect
	github.com/sourcegraph/conc v0.3.0 // indirect
	github.com/spf13/afero v1.11.0 // indirect
	github.com/spf13/cast v1.6.0 // indirect
	github.com/spf13/pflag v1.0.5 // indirect
	github.com/subosito/gotenv v1.6.0 // indirect
	github.com/twitchyliquid64/golang-asm v0.15.1 // indirect
	github.com/ugorji/go/codec v1.2.11 // indirect
	go.uber.org/atomic v1.9.0 // indirect
	go.uber.org/multierr v1.9.0 // indirect
	golang.org/x/arch v0.3.0 // indirect
	golang.org/x/exp v0.0.0-20230905200255-921286631fa9 // indirect
	golang.org/x/net v0.24.0 // indirect
	golang.org/x/sys v0.19.0 // indirect
	golang.org/x/text v0.14.0 // indirect
	golang.org/x/xerrors v0.0.0-20220907171357-04be3eba64a2 // indirect
	google.golang.org/genproto/googleapis/rpc v0.0.0-20240227224415-6ceb2ff114de // indirect
	gopkg.in/ini.v1 v1.67.0 // indirect
	gopkg.in/yaml.v3 v3.0.1 // indirect
)
